C:\skola\java\spring course\tennis-club-reservation-system\src\test\java\CourtTests.java
C:\skola\java\spring course\tennis-club-reservation-system\src\test\java\UserTests.java
C:\skola\java\spring course\tennis-club-reservation-system\src\test\java\ReservationTests.java
